{
  "device_frame_version": "latest",
  "default": {
    "background": "./default/background.jpg",
    "padding": 60,
    "stack_title": true,
    "interline_spacing": 10,
    "keyword": {
      "fonts": [
        {
          "font": "./default/fonts/Oswald.ttf"
        }
      ]
    },
    "title": {
      "font_size": 50,
      "color": "#000000",
      "fonts": [
        {
          "font": "./default/fonts/Oswald.ttf"
        }
      ]
    }
  },


  "data": [
    {
      "filter": "1-ARCHIVO",
      "keyword": {
        "color": "#E91E63"
      }
    },
    {
      "filter": "2-ARCHIVOSCATEGORIA",
      "keyword": {
        "color": "#4CAF50"
      }
    },
    {
      "filter": "3-BUSCADOR",
      "keyword": {
        "color": "#FFC107"
      }
    },
    {
      "filter": "4-SUBIR",
      "keyword": {
        "color": "#00BCD4"
      }
    },
    {
      "filter": "5-ASIGNATURASMARCADAS",
      "keyword": {
        "color": "#FF5722"
      }
    },
    {
      "filter": "6-INICIO",
      "keyword": {
        "color": "#3F51B5"
      }
    },
    {
      "filter": "7-ARCHIVOSPROPIOS",
      "keyword": {
        "color": "#673AB7"
      }
    },
    {
      "filter": "8-PERFILAJENO",
      "keyword": {
        "color": "#009688"
      }
    }
  ]
}